<?xml version="1.0" encoding="UTF-8"?>
<session version="1.0">
<refactoring comment="Rename type &apos;java20220429.java20220429&apos; to &apos;CalculoIdade&apos;&#x0D;&#x0A;- Original project: &apos;java20220429&apos;&#x0D;&#x0A;- Original element: &apos;java20220429.java20220429&apos;&#x0D;&#x0A;- Renamed element: &apos;java20220429.CalculoIdade&apos;&#x0D;&#x0A;- Update references to refactored element&#x0D;&#x0A;- Update textual occurrences in comments and strings" description="Rename type &apos;java20220429&apos;" flags="589830" id="org.eclipse.jdt.ui.rename.type" input="/src&lt;java20220429{java20220429.java[java20220429" matchStrategy="1" name="CalculoIdade" qualified="false" references="true" similarDeclarations="false" stamp="1651239980265" textual="false" version="1.0"/>
</session>